{
  "images" : [
    {
      "idiom" : "universal",
      "filename" : "35282212-Piso-Busness-Hombre-de-perfil-de-usuario-Avatar-de-dise-o-icono-Traje-y-larga-sombra-ilustraci-n-vec-Foto-de-archivo.jpg",
      "scale" : "1x"
    },
    {
      "idiom" : "universal",
      "scale" : "2x"
    },
    {
      "idiom" : "universal",
      "scale" : "3x"
    }
  ],
  "info" : {
    "version" : 1,
    "author" : "xcode"
  }
}