{
  "images" : [
    {
      "idiom" : "universal",
      "filename" : "944dfeb5ebd0b625b34e347751701315-30-por-ciento-manzana-comida-by-vexels.png",
      "scale" : "1x"
    },
    {
      "idiom" : "universal",
      "scale" : "2x"
    },
    {
      "idiom" : "universal",
      "scale" : "3x"
    }
  ],
  "info" : {
    "version" : 1,
    "author" : "xcode"
  }
}